%YAML 1.1
%TAG !u! tag:unity3d.com,2011:
--- !u!114 &11400000
MonoBehaviour:
  m_ObjectHideFlags: 0
  m_PrefabParentObject: {fileID: 0}
  m_PrefabInternal: {fileID: 0}
  m_GameObject: {fileID: 0}
  m_Enabled: 1
  m_EditorHideFlags: 0
  m_Script: {fileID: 11500000, guid: 64ffd9400a5c1bc408dd8732d9771930, type: 3}
  m_Name: AchimentBuyStarpomWork
  m_EditorClassIdentifier: 
  achivName: AchimentBuyStarpomWork_Key
  mainDiscription: AchimentBuyStarpomWork_Value
  type: 8
  reward: 5
  needLevel: 1
  needCount: 1
  diff: 2
  isCollect: 0
  progress: 0
  achivPPname: spesific1/1
  kodeString: 'CgkIguCe6r4REAIQMg '
