%YAML 1.1
%TAG !u! tag:unity3d.com,2011:
--- !u!114 &11400000
MonoBehaviour:
  m_ObjectHideFlags: 0
  m_PrefabParentObject: {fileID: 0}
  m_PrefabInternal: {fileID: 0}
  m_GameObject: {fileID: 0}
  m_Enabled: 1
  m_EditorHideFlags: 0
  m_Script: {fileID: 11500000, guid: 64ffd9400a5c1bc408dd8732d9771930, type: 3}
  m_Name: AchimentCollectMoney3
  m_EditorClassIdentifier: 
  achivName: "\u0421\u0443\u043D\u0434\u0443\u043A \u0441 \u0437\u043E\u043B\u043E\u0442\u043E\u043C "
  mainDiscription: "\u0417\u0430\u0431\u0440\u0430\u0442\u044C \u043C\u043E\u043D\u0435\u0442\u044B
    \u0438\u0437 \u043A\u043E\u043F\u0438\u043B\u043A\u0438 25 \u0440\u0430\u0437 "
  type: 6
  reward: 5
  needLevel: 0
  needCount: 25
  diff: 2
  isCollect: 0
  progress: 3
  achivPPname: collectMoney0/25
  kodeString: 'CgkIguCe6r4REAIQLQ '
