%YAML 1.1
%TAG !u! tag:unity3d.com,2011:
--- !u!114 &11400000
MonoBehaviour:
  m_ObjectHideFlags: 0
  m_PrefabParentObject: {fileID: 0}
  m_PrefabInternal: {fileID: 0}
  m_GameObject: {fileID: 0}
  m_Enabled: 1
  m_EditorHideFlags: 0
  m_Script: {fileID: 11500000, guid: 64ffd9400a5c1bc408dd8732d9771930, type: 3}
  m_Name: AchimentLevel10
  m_EditorClassIdentifier: 
  achivName: "\u0420\u0430\u0441\u0442\u0435\u043C "
  mainDiscription: "\u0414\u043E\u0441\u0442\u0438\u0433\u043D\u0443\u0442\u044C 10
    \u0443\u0440\u043E\u0432\u043D\u044F "
  type: 26
  reward: 3
  needLevel: 10
  needCount: 1
  diff: 0
  isCollect: 0
  progress: 1
  achivPPname: levelUp10/1
  kodeString: 'CgkIguCe6r4REAIQDA '
