%YAML 1.1
%TAG !u! tag:unity3d.com,2011:
--- !u!114 &11400000
MonoBehaviour:
  m_ObjectHideFlags: 0
  m_PrefabParentObject: {fileID: 0}
  m_PrefabInternal: {fileID: 0}
  m_GameObject: {fileID: 0}
  m_Enabled: 1
  m_EditorHideFlags: 0
  m_Script: {fileID: 11500000, guid: 64ffd9400a5c1bc408dd8732d9771930, type: 3}
  m_Name: CombineTeam1
  m_EditorClassIdentifier: 
  achivName: "\u0423\u0436\u0435 \u043D\u0435 \u043D\u043E\u0432\u0438\u0447\u0435\u043A "
  mainDiscription: "\u041E\u0431\u044A\u0435\u0434\u0438\u043D\u0438\u0442\u044C 10
    \u043A\u043E\u043C\u0430\u043D\u0434 "
  type: 24
  reward: 4
  needLevel: 1
  needCount: 1
  diff: 1
  isCollect: 0
  progress: 1
  achivPPname: combineTeam1/1
  kodeString: 'CgkIguCe6r4REAIQBQ '
